…
Fill in the space to the left of the ‘=’ symbol with the new variable
name:

``` r
trimmed_df %>% 
  select(hotel, is_canceled, lead_time) %>% 
  rename(hotel_type = hotel)
```

    ## # A tibble: 119,390 × 3
    ##    hotel_type   is_canceled lead_time
    ##    <chr>              <dbl>     <dbl>
    ##  1 Resort Hotel           0       342
    ##  2 Resort Hotel           0       737
    ##  3 Resort Hotel           0         7
    ##  4 Resort Hotel           0        13
    ##  5 Resort Hotel           0        14
    ##  6 Resort Hotel           0        14
    ##  7 Resort Hotel           0         0
    ##  8 Resort Hotel           0         9
    ##  9 Resort Hotel           1        85
    ## 10 Resort Hotel           1        75
    ## # ℹ 119,380 more rows
…
