…
## Manipulating your data

Let’s say you want to arrange the data by most lead time to least lead
time because you want to focus on bookings that were made far in
advance. You decide you want to try using the `arrange()` function;
input the correct column name after the comma and run this code chunk:

``` r
arrange(hotel_bookings, lead_time)
```

    ## # A tibble: 119,390 × 32
    ##    hotel        is_canceled lead_time arrival_date_year arrival_date_month
    ##    <chr>              <dbl>     <dbl>             <dbl> <chr>             
    ##  1 Resort Hotel           0         0              2015 July              
    ##  2 Resort Hotel           0         0              2015 July              
    ##  3 Resort Hotel           0         0              2015 July              
    ##  4 Resort Hotel           0         0              2015 July              
    ##  5 Resort Hotel           0         0              2015 July              
    ##  6 Resort Hotel           0         0              2015 July              
    ##  7 Resort Hotel           0         0              2015 July              
    ##  8 Resort Hotel           0         0              2015 July              
    ##  9 Resort Hotel           0         0              2015 July              
    ## 10 Resort Hotel           0         0              2015 July              
    ## # ℹ 119,380 more rows
    ## # ℹ 27 more variables: arrival_date_week_number <dbl>,
    ## #   arrival_date_day_of_month <dbl>, stays_in_weekend_nights <dbl>,
    ## #   stays_in_week_nights <dbl>, adults <dbl>, children <dbl>, babies <dbl>,
    ## #   meal <chr>, country <chr>, market_segment <chr>,
    ## #   distribution_channel <chr>, is_repeated_guest <dbl>,
    ## #   previous_cancellations <dbl>, previous_bookings_not_canceled <dbl>, …

But why are there so many zeroes? That’s because `arrange()`
automatically orders by ascending order, and you need to specifically
tell it when to order by descending order, like the below code chunk
below:

``` r
arrange(hotel_bookings, desc(lead_time))
```

    ## # A tibble: 119,390 × 32
    ##    hotel        is_canceled lead_time arrival_date_year arrival_date_month
    ##    <chr>              <dbl>     <dbl>             <dbl> <chr>             
    ##  1 Resort Hotel           0       737              2015 July              
    ##  2 Resort Hotel           0       709              2016 February          
    ##  3 City Hotel             1       629              2017 March             
    ##  4 City Hotel             1       629              2017 March             
    ##  5 City Hotel             1       629              2017 March             
    ##  6 City Hotel             1       629              2017 March             
    ##  7 City Hotel             1       629              2017 March             
    ##  8 City Hotel             1       629              2017 March             
    ##  9 City Hotel             1       629              2017 March             
    ## 10 City Hotel             1       629              2017 March             
    ## # ℹ 119,380 more rows
    ## # ℹ 27 more variables: arrival_date_week_number <dbl>,
    ## #   arrival_date_day_of_month <dbl>, stays_in_weekend_nights <dbl>,
    ## #   stays_in_week_nights <dbl>, adults <dbl>, children <dbl>, babies <dbl>,
    ## #   meal <chr>, country <chr>, market_segment <chr>,
    ## #   distribution_channel <chr>, is_repeated_guest <dbl>,
    ## #   previous_cancellations <dbl>, previous_bookings_not_canceled <dbl>, …
…
You were able to report to your boss what the average lead time before
booking is, but now they want to know what the average lead time before
booking is for just city hotels. They want to focus the promotion
they’re running by targeting major cities.

You know that your first step will be creating a new dataset that only
contains data about city hotels. You can do that using the `filter()`
function, and name your new data frame ‘hotel_bookings_city’:

``` r
hotel_bookings_city <- hotel_bookings
  filter(hotel_bookings, hotel_bookings$hotel=="City Hotel")
```

    ## # A tibble: 79,330 × 32
    ##    hotel      is_canceled lead_time arrival_date_year arrival_date_month
    ##    <chr>            <dbl>     <dbl>             <dbl> <chr>             
    ##  1 City Hotel           0         6              2015 July              
    ##  2 City Hotel           1        88              2015 July              
    ##  3 City Hotel           1        65              2015 July              
    ##  4 City Hotel           1        92              2015 July              
    ##  5 City Hotel           1       100              2015 July              
    ##  6 City Hotel           1        79              2015 July              
    ##  7 City Hotel           0         3              2015 July              
    ##  8 City Hotel           1        63              2015 July              
    ##  9 City Hotel           1        62              2015 July              
    ## 10 City Hotel           1        62              2015 July              
    ## # ℹ 79,320 more rows
    ## # ℹ 27 more variables: arrival_date_week_number <dbl>,
    ## #   arrival_date_day_of_month <dbl>, stays_in_weekend_nights <dbl>,
    ## #   stays_in_week_nights <dbl>, adults <dbl>, children <dbl>, babies <dbl>,
    ## #   meal <chr>, country <chr>, market_segment <chr>,
    ## #   distribution_channel <chr>, is_repeated_guest <dbl>,
    ## #   previous_cancellations <dbl>, previous_bookings_not_canceled <dbl>, …
…
