…
``` r
new_df <- select(bookings_df, adr, adults)
```

To create new variables in your data frame, you can use the `mutate()`
function. This will make changes to the data frame, but not to the
original data set you imported. That source data will remain unchanged.

``` r
mutate(new_df, total = adr / adults)
```

    ## # A tibble: 119,390 × 3
    ##      adr adults total
    ##    <dbl>  <dbl> <dbl>
    ##  1    0       2   0  
    ##  2    0       2   0  
    ##  3   75       1  75  
    ##  4   75       1  75  
    ##  5   98       2  49  
    ##  6   98       2  49  
    ##  7  107       2  53.5
    ##  8  103       2  51.5
    ##  9   82       2  41  
    ## 10  106.      2  52.8
    ## # ℹ 119,380 more rows
…
