…
One of the most frequent tasks you will have to perform as an analyst is
to clean and organize your data. `R` makes this easy! There are many
functions you can use to help you perform important tasks easily and
quickly.

For example, you might need to rename the columns, or variables, in your
data. There is a function for that: `rename().` You can check out how it
works in the chunk below:

``` r
rename(diamonds, carat_new = carat)
```

    ## # A tibble: 53,940 × 10
    ##    carat_new cut       color clarity depth table price     x     y     z
    ##        <dbl> <ord>     <ord> <ord>   <dbl> <dbl> <int> <dbl> <dbl> <dbl>
    ##  1      0.23 Ideal     E     SI2      61.5    55   326  3.95  3.98  2.43
    ##  2      0.21 Premium   E     SI1      59.8    61   326  3.89  3.84  2.31
    ##  3      0.23 Good      E     VS1      56.9    65   327  4.05  4.07  2.31
    ##  4      0.29 Premium   I     VS2      62.4    58   334  4.2   4.23  2.63
    ##  5      0.31 Good      J     SI2      63.3    58   335  4.34  4.35  2.75
    ##  6      0.24 Very Good J     VVS2     62.8    57   336  3.94  3.96  2.48
    ##  7      0.24 Very Good I     VVS1     62.3    57   336  3.95  3.98  2.47
    ##  8      0.26 Very Good H     SI1      61.9    55   337  4.07  4.11  2.53
    ##  9      0.22 Fair      E     VS2      65.1    61   337  3.87  3.78  2.49
    ## 10      0.23 Very Good H     VS1      59.4    61   338  4     4.05  2.39
    ## # ℹ 53,930 more rows

Here, the function is being used to change the name of `carat` to
`carat_new`. This is a pretty basic change, but `rename()` has many
options that can help you do more complex changes across all of the
variables in your data.

For example, you can rename more than one variable in the same
`rename()` code. The code below demonstrates how:

``` r
rename(diamonds, carat_new = carat, cut_new = cut)
```

    ## # A tibble: 53,940 × 10
    ##    carat_new cut_new   color clarity depth table price     x     y     z
    ##        <dbl> <ord>     <ord> <ord>   <dbl> <dbl> <int> <dbl> <dbl> <dbl>
    ##  1      0.23 Ideal     E     SI2      61.5    55   326  3.95  3.98  2.43
    ##  2      0.21 Premium   E     SI1      59.8    61   326  3.89  3.84  2.31
    ##  3      0.23 Good      E     VS1      56.9    65   327  4.05  4.07  2.31
    ##  4      0.29 Premium   I     VS2      62.4    58   334  4.2   4.23  2.63
    ##  5      0.31 Good      J     SI2      63.3    58   335  4.34  4.35  2.75
    ##  6      0.24 Very Good J     VVS2     62.8    57   336  3.94  3.96  2.48
    ##  7      0.24 Very Good I     VVS1     62.3    57   336  3.95  3.98  2.47
    ##  8      0.26 Very Good H     SI1      61.9    55   337  4.07  4.11  2.53
    ##  9      0.22 Fair      E     VS2      65.1    61   337  3.87  3.78  2.49
    ## 10      0.23 Very Good H     VS1      59.4    61   338  4     4.05  2.39
    ## # ℹ 53,930 more rows
…
